^C:\USERS\OXXY\DESKTOP\EVERYTHINGRO\HERCULES\SRC\PLUGINS\CHAT_COLOR.C
C:\USERS\OXXY\DESKTOP\EVERYTHINGRO\HERCULES\CHAT COLOR\ CHAT_COLOR\CHAT_COLOR.OBJ
C:\USERS\OXXY\DESKTOP\EVERYTHINGRO\HERCULES\CHAT COLOR\ CHAT_COLOR\VC100.PDB
