^C:\USERS\OXXY\DESKTOP\XXRO\SRC\PLUGINS\CHAT_COLOR.C
C:\PROGRAM FILES (X86)\MICROSOFT VISUAL STUDIO 10.0\VC\BIN\1033\CLUI.DLL
C:\WINDOWS\SYSTEM32\RSAENH.DLL
C:\WINDOWS\SYSTEM32\CRYPT32.DLL
C:\WINDOWS\SYSTEM32\TZRES.DLL
C:\PROGRAM FILES (X86)\MICROSOFT VISUAL STUDIO 10.0\VC\INCLUDE\STDIO.H
C:\PROGRAM FILES (X86)\MICROSOFT VISUAL STUDIO 10.0\VC\INCLUDE\CRTDEFS.H
C:\PROGRAM FILES (X86)\MICROSOFT VISUAL STUDIO 10.0\VC\INCLUDE\SAL.H
C:\PROGRAM FILES (X86)\MICROSOFT VISUAL STUDIO 10.0\VC\INCLUDE\CODEANALYSIS\SOURCEANNOTATIONS.H
C:\PROGRAM FILES (X86)\MICROSOFT VISUAL STUDIO 10.0\VC\INCLUDE\VADEFS.H
C:\PROGRAM FILES (X86)\MICROSOFT VISUAL STUDIO 10.0\VC\INCLUDE\SWPRINTF.INL
C:\PROGRAM FILES (X86)\MICROSOFT VISUAL STUDIO 10.0\VC\INCLUDE\STDLIB.H
C:\PROGRAM FILES (X86)\MICROSOFT VISUAL STUDIO 10.0\VC\INCLUDE\LIMITS.H
C:\PROGRAM FILES (X86)\MICROSOFT VISUAL STUDIO 10.0\VC\INCLUDE\STRING.H
C:\USERS\OXXY\DESKTOP\XXRO\SRC\COMMON\HPMI.H
C:\USERS\OXXY\DESKTOP\XXRO\SRC\COMMON\CBASETYPES.H
C:\USERS\OXXY\DESKTOP\XXRO\3RDPARTY\MSINTTYPES\INCLUDE\INTTYPES.H
C:\USERS\OXXY\DESKTOP\XXRO\3RDPARTY\MSINTTYPES\INCLUDE\STDINT.H
C:\PROGRAM FILES (X86)\MICROSOFT VISUAL STUDIO 10.0\VC\INCLUDE\WCHAR.H
C:\PROGRAM FILES (X86)\MICROSOFT VISUAL STUDIO 10.0\VC\INCLUDE\WTIME.INL
C:\PROGRAM FILES (X86)\MICROSOFT VISUAL STUDIO 10.0\VC\INCLUDE\STDDEF.H
C:\PROGRAM FILES (X86)\MICROSOFT VISUAL STUDIO 10.0\VC\INCLUDE\CTYPE.H
C:\PROGRAM FILES (X86)\MICROSOFT VISUAL STUDIO 10.0\VC\INCLUDE\STDARG.H
C:\USERS\OXXY\DESKTOP\XXRO\SRC\COMMON\CONSOLE.H
C:\USERS\OXXY\DESKTOP\XXRO\SRC\CONFIG\CORE.H
C:\USERS\OXXY\DESKTOP\XXRO\SRC\CONFIG\RENEWAL.H
C:\USERS\OXXY\DESKTOP\XXRO\SRC\CONFIG\SECURE.H
C:\USERS\OXXY\DESKTOP\XXRO\SRC\CONFIG\CLASSES\GENERAL.H
C:\USERS\OXXY\DESKTOP\XXRO\SRC\CONFIG\CONST.H
C:\USERS\OXXY\DESKTOP\XXRO\SRC\COMMON\MUTEX.H
C:\USERS\OXXY\DESKTOP\XXRO\SRC\COMMON\SPINLOCK.H
C:\USERS\OXXY\DESKTOP\XXRO\SRC\COMMON\ATOMIC.H
C:\USERS\OXXY\DESKTOP\XXRO\SRC\COMMON\WINAPI.H
C:\PROGRAM FILES (X86)\MICROSOFT VISUAL STUDIO 10.0\VC\INCLUDE\IO.H
C:\PROGRAM FILES (X86)\MICROSOFT SDKS\WINDOWS\V7.0A\INCLUDE\WINDOWS.H
C:\PROGRAM FILES (X86)\MICROSOFT SDKS\WINDOWS\V7.0A\INCLUDE\SDKDDKVER.H
C:\PROGRAM FILES (X86)\MICROSOFT VISUAL STUDIO 10.0\VC\INCLUDE\EXCPT.H
C:\PROGRAM FILES (X86)\MICROSOFT SDKS\WINDOWS\V7.0A\INCLUDE\WINDEF.H
C:\PROGRAM FILES (X86)\MICROSOFT SDKS\WINDOWS\V7.0A\INCLUDE\WINNT.H
C:\PROGRAM FILES (X86)\MICROSOFT SDKS\WINDOWS\V7.0A\INCLUDE\SPECSTRINGS.H
C:\PROGRAM FILES (X86)\MICROSOFT SDKS\WINDOWS\V7.0A\INCLUDE\SAL_SUPP.H
C:\PROGRAM FILES (X86)\MICROSOFT SDKS\WINDOWS\V7.0A\INCLUDE\SPECSTRINGS_SUPP.H
C:\PROGRAM FILES (X86)\MICROSOFT SDKS\WINDOWS\V7.0A\INCLUDE\SPECSTRINGS_STRICT.H
C:\PROGRAM FILES (X86)\MICROSOFT SDKS\WINDOWS\V7.0A\INCLUDE\SPECSTRINGS_UNDEF.H
C:\PROGRAM FILES (X86)\MICROSOFT SDKS\WINDOWS\V7.0A\INCLUDE\DRIVERSPECS.H
C:\PROGRAM FILES (X86)\MICROSOFT SDKS\WINDOWS\V7.0A\INCLUDE\SDV_DRIVERSPECS.H
C:\PROGRAM FILES (X86)\MICROSOFT SDKS\WINDOWS\V7.0A\INCLUDE\KERNELSPECS.H
C:\PROGRAM FILES (X86)\MICROSOFT SDKS\WINDOWS\V7.0A\INCLUDE\BASETSD.H
C:\PROGRAM FILES (X86)\MICROSOFT SDKS\WINDOWS\V7.0A\INCLUDE\GUIDDEF.H
C:\PROGRAM FILES (X86)\MICROSOFT SDKS\WINDOWS\V7.0A\INCLUDE\PSHPACK4.H
C:\PROGRAM FILES (X86)\MICROSOFT SDKS\WINDOWS\V7.0A\INCLUDE\POPPACK.H
C:\PROGRAM FILES (X86)\MICROSOFT SDKS\WINDOWS\V7.0A\INCLUDE\PSHPACK2.H
C:\PROGRAM FILES (X86)\MICROSOFT SDKS\WINDOWS\V7.0A\INCLUDE\PSHPACK8.H
C:\PROGRAM FILES (X86)\MICROSOFT SDKS\WINDOWS\V7.0A\INCLUDE\KTMTYPES.H
C:\PROGRAM FILES (X86)\MICROSOFT SDKS\WINDOWS\V7.0A\INCLUDE\WINBASE.H
C:\PROGRAM FILES (X86)\MICROSOFT SDKS\WINDOWS\V7.0A\INCLUDE\WINERROR.H
C:\PROGRAM FILES (X86)\MICROSOFT SDKS\WINDOWS\V7.0A\INCLUDE\WINGDI.H
C:\PROGRAM FILES (X86)\MICROSOFT SDKS\WINDOWS\V7.0A\INCLUDE\PSHPACK1.H
C:\PROGRAM FILES (X86)\MICROSOFT SDKS\WINDOWS\V7.0A\INCLUDE\WINUSER.H
C:\PROGRAM FILES (X86)\MICROSOFT SDKS\WINDOWS\V7.0A\INCLUDE\TVOUT.H
C:\PROGRAM FILES (X86)\MICROSOFT SDKS\WINDOWS\V7.0A\INCLUDE\WINNLS.H
C:\PROGRAM FILES (X86)\MICROSOFT SDKS\WINDOWS\V7.0A\INCLUDE\WINCON.H
C:\PROGRAM FILES (X86)\MICROSOFT SDKS\WINDOWS\V7.0A\INCLUDE\WINVER.H
C:\PROGRAM FILES (X86)\MICROSOFT SDKS\WINDOWS\V7.0A\INCLUDE\VERRSRC.H
C:\PROGRAM FILES (X86)\MICROSOFT SDKS\WINDOWS\V7.0A\INCLUDE\WINREG.H
C:\PROGRAM FILES (X86)\MICROSOFT SDKS\WINDOWS\V7.0A\INCLUDE\REASON.H
C:\PROGRAM FILES (X86)\MICROSOFT SDKS\WINDOWS\V7.0A\INCLUDE\WINNETWK.H
C:\PROGRAM FILES (X86)\MICROSOFT SDKS\WINDOWS\V7.0A\INCLUDE\WNNC.H
C:\PROGRAM FILES (X86)\MICROSOFT SDKS\WINDOWS\V7.0A\INCLUDE\STRALIGN.H
C:\PROGRAM FILES (X86)\MICROSOFT SDKS\WINDOWS\V7.0A\INCLUDE\IMM.H
C:\PROGRAM FILES (X86)\MICROSOFT SDKS\WINDOWS\V7.0A\INCLUDE\IME_CMODES.H
C:\PROGRAM FILES (X86)\MICROSOFT SDKS\WINDOWS\V7.0A\INCLUDE\WINSOCK2.H
C:\PROGRAM FILES (X86)\MICROSOFT SDKS\WINDOWS\V7.0A\INCLUDE\WS2DEF.H
C:\PROGRAM FILES (X86)\MICROSOFT SDKS\WINDOWS\V7.0A\INCLUDE\INADDR.H
C:\PROGRAM FILES (X86)\MICROSOFT SDKS\WINDOWS\V7.0A\INCLUDE\QOS.H
C:\PROGRAM FILES (X86)\MICROSOFT SDKS\WINDOWS\V7.0A\INCLUDE\IN6ADDR.H
C:\PROGRAM FILES (X86)\MICROSOFT SDKS\WINDOWS\V7.0A\INCLUDE\WS2TCPIP.H
C:\PROGRAM FILES (X86)\MICROSOFT SDKS\WINDOWS\V7.0A\INCLUDE\WS2IPDEF.H
C:\PROGRAM FILES (X86)\MICROSOFT SDKS\WINDOWS\V7.0A\INCLUDE\WSPIAPI.H
C:\USERS\OXXY\DESKTOP\XXRO\SRC\COMMON\MALLOC.H
C:\PROGRAM FILES (X86)\MICROSOFT SDKS\WINDOWS\V7.0A\INCLUDE\MSWSOCK.H
C:\PROGRAM FILES (X86)\MICROSOFT SDKS\WINDOWS\V7.0A\INCLUDE\MSWSOCKDEF.H
C:\PROGRAM FILES (X86)\MICROSOFT SDKS\WINDOWS\V7.0A\INCLUDE\MMSYSTEM.H
C:\USERS\OXXY\DESKTOP\XXRO\SRC\COMMON\THREAD.H
C:\USERS\OXXY\DESKTOP\XXRO\SRC\COMMON\SQL.H
C:\USERS\OXXY\DESKTOP\XXRO\SRC\COMMON\CORE.H
C:\USERS\OXXY\DESKTOP\XXRO\SRC\COMMON\DB.H
C:\USERS\OXXY\DESKTOP\XXRO\SRC\COMMON\MMO.H
C:\PROGRAM FILES (X86)\MICROSOFT VISUAL STUDIO 10.0\VC\INCLUDE\TIME.H
C:\PROGRAM FILES (X86)\MICROSOFT VISUAL STUDIO 10.0\VC\INCLUDE\TIME.INL
C:\USERS\OXXY\DESKTOP\XXRO\SRC\COMMON\SHOWMSG.H
C:\USERS\OXXY\DESKTOP\XXRO\SRC\COMMON\SOCKET.H
C:\USERS\OXXY\DESKTOP\XXRO\SRC\COMMON\STRLIB.H
C:\USERS\OXXY\DESKTOP\XXRO\SRC\COMMON\TIMER.H
C:\USERS\OXXY\DESKTOP\XXRO\SRC\COMMON\MAPINDEX.H
C:\USERS\OXXY\DESKTOP\XXRO\SRC\MAP\CLIF.H
C:\USERS\OXXY\DESKTOP\XXRO\SRC\MAP\MAP.H
C:\USERS\OXXY\DESKTOP\XXRO\SRC\MAP\ATCOMMAND.H
C:\USERS\OXXY\DESKTOP\XXRO\SRC\MAP\PC_GROUPS.H
C:\USERS\OXXY\DESKTOP\XXRO\SRC\COMMON\CONF.H
C:\USERS\OXXY\DESKTOP\XXRO\3RDPARTY\LIBCONFIG\LIBCONFIG.H
C:\USERS\OXXY\DESKTOP\XXRO\SRC\MAP\PACKETS_STRUCT.H
C:\USERS\OXXY\DESKTOP\XXRO\SRC\MAP\SCRIPT.H
C:\PROGRAM FILES (X86)\MICROSOFT VISUAL STUDIO 10.0\VC\INCLUDE\ERRNO.H
C:\PROGRAM FILES (X86)\MICROSOFT VISUAL STUDIO 10.0\VC\INCLUDE\SETJMP.H
C:\USERS\OXXY\DESKTOP\XXRO\SRC\MAP\PC.H
C:\USERS\OXXY\DESKTOP\XXRO\SRC\MAP\BATTLE.H
C:\USERS\OXXY\DESKTOP\XXRO\SRC\MAP\BATTLEGROUND.H
C:\USERS\OXXY\DESKTOP\XXRO\SRC\MAP\GUILD.H
C:\USERS\OXXY\DESKTOP\XXRO\SRC\MAP\BUYINGSTORE.H
C:\USERS\OXXY\DESKTOP\XXRO\SRC\MAP\ITEMDB.H
C:\USERS\OXXY\DESKTOP\XXRO\SRC\MAP\LOG.H
C:\USERS\OXXY\DESKTOP\XXRO\SRC\MAP\SEARCHSTORE.H
C:\USERS\OXXY\DESKTOP\XXRO\SRC\MAP\STATUS.H
C:\USERS\OXXY\DESKTOP\XXRO\SRC\MAP\UNIT.H
C:\USERS\OXXY\DESKTOP\XXRO\SRC\MAP\PATH.H
C:\USERS\OXXY\DESKTOP\XXRO\SRC\MAP\SKILL.H
C:\USERS\OXXY\DESKTOP\XXRO\SRC\MAP\VENDING.H
C:\USERS\OXXY\DESKTOP\XXRO\SRC\COMMON\ERS.H
C:\USERS\OXXY\DESKTOP\XXRO\SRC\MAP\CHANNEL.H
C:\USERS\OXXY\DESKTOP\XXRO\SRC\MAP\CHAT.H
C:\USERS\OXXY\DESKTOP\XXRO\SRC\COMMON\HPMDATACHECK.H
